{
  "production": {
    "driver": "mysql",
    "host": "127.0.0.1",
    "user": "root",
    "password": "",
    "database": "qtest"
  },
  "test": {
    "driver": "mysql",
    "host": "127.0.0.1",
    "user": "root",
    "password": "",
    "database": "qtest_test"
  }
}
